ISSCC26/submitted_notebooks/LLMForge/verilog/core/core_rc.vcd
$date
	Thu Sep 11 18:41:05 2025
$end
$version
	Icarus Verilog
$end
$timescale
	1ps
$end
$scope module core_rc_tb $end
$var wire 1 ! out_data_vld $end
$var wire 24 " out_data [23:0] $end
$var wire 1 # error $end
$var reg 1 $ clk $end
$var reg 24 % in_data [23:0] $end
$var reg 1 & in_data_vld $end
$var reg 24 ' rc_scale [23:0] $end
$var reg 1 ( rc_scale_clear $end
$var reg 1 ) rc_scale_vld $end
$var reg 1 * recompute_needed $end
$var reg 5 + rms_rc_shift [4:0] $end
$var reg 1 , rst_n $end
$scope module dut $end
$var wire 1 $ clk $end
$var wire 24 - in_data [23:0] $end
$var wire 1 & in_data_vld $end
$var wire 24 . rc_scale [23:0] $end
$var wire 1 ( rc_scale_clear $end
$var wire 1 ) rc_scale_vld $end
$var wire 1 * recompute_needed $end
$var wire 5 / rms_rc_shift [4:0] $end
$var wire 1 , rst_n $end
$var wire 1 0 fifo_empty $end
$var wire 24 1 fifo_data_out [23:0] $end
$var wire 1 # error $end
$var reg 1 2 _sv2v_0 $end
$var reg 24 3 fifo_data_in [23:0] $end
$var reg 1 4 fifo_rd_en $end
$var reg 1 5 fifo_rvld $end
$var reg 1 6 fifo_wr_en $end
$var reg 48 7 nxt_rc_data_rnd [47:0] $end
$var reg 24 8 out_data [23:0] $end
$var reg 1 ! out_data_vld $end
$var reg 48 9 rc_data_rnd [47:0] $end
$var reg 1 : rc_data_rnd_vld $end
$var reg 48 ; rc_data_shift [47:0] $end
$var reg 1 < rc_data_shift_vld $end
$var reg 24 = rc_scale_reg [23:0] $end
$var reg 1 > rc_scale_reg_available $end
$var reg 1 ? round $end
$scope begin genblk1[0] $end
$scope begin genblk1 $end
$upscope $end
$upscope $end
$scope begin genblk1[1] $end
$scope begin genblk1 $end
$upscope $end
$upscope $end
$scope begin genblk1[2] $end
$scope begin genblk1 $end
$upscope $end
$upscope $end
$scope begin genblk1[3] $end
$scope begin genblk1 $end
$upscope $end
$upscope $end
$scope module inst_sync_data_fifo $end
$var wire 1 $ clk $end
$var wire 24 @ data_in [23:0] $end
$var wire 1 4 rd_en $end
$var wire 1 , rst_n $end
$var wire 1 6 wr_en $end
$var wire 1 A wr_ptr_msb $end
$var wire 4 B real_wr_ptr [3:0] $end
$var wire 4 C real_rd_ptr [3:0] $end
$var wire 1 D rd_ptr_msb $end
$var wire 1 # full $end
$var wire 1 0 empty $end
$var reg 24 E data_out [23:0] $end
$var reg 5 F rd_ptr [4:0] $end
$var reg 5 G wr_ptr [4:0] $end
$upscope $end
$upscope $end
$scope task wait_for_out $end
$upscope $end
$upscope $end
$enddefinitions $end
#0
$dumpvars
b0 G
b0 F
bx E
0D
b0 C
b0 B
0A
bx @
0?
0>
b0 =
0<
b0 ;
0:
b0 9
b0 8
b0 7
06
05
14
bx 3
02
bx 1
10
bx /
bx .
bx -
0,
bx +
0*
0)
0(
bx '
0&
bx %
0$
0#
b0 "
0!
$end
#5000
1$
#10000
0$
1,
#15000
b101001011010010110100101 "
b101001011010010110100101 8
1!
16
b101001011010010110100101 3
b101001011010010110100101 @
1&
b101001011010010110100101 %
b101001011010010110100101 -
1$
#20000
0$
#25000
00
b1 B
b111111111111111111111110 "
b111111111111111111111110 8
b1 G
b111111111111111111111110 3
b111111111111111111111110 @
b111111111111111111111110 %
b111111111111111111111110 -
1$
#30000
0$
#35000
b1 C
b10 B
b1 F
b101001011010010110100101 1
b101001011010010110100101 E
b10 G
15
b111111111 "
b111111111 8
b111111111 3
b111111111 @
b111111111 %
b111111111 -
1$
#40000
0$
#45000
b11 B
b10 C
0!
b11 G
b10 F
b111111111111111111111110 1
b111111111111111111111110 E
06
0&
1$
#50000
0$
#55000
10
b11 C
b11 F
b111111111 1
b111111111 E
1$
#60000
0$
#65000
b0 B
b0 C
b0 "
b0 8
05
b0 G
b0 F
0,
1$
#70000
0$
#75000
1$
#80000
0$
#85000
b111111111 "
b111111111 8
1,
1$
#90000
0$
#95000
1>
b11000000111001 =
b0 "
b0 8
14
1)
b11 +
b11 /
b11000000111001 '
b11000000111001 .
1*
1$
#100000
0$
#105000
0)
1$
#110000
0$
#115000
16
b100000000000000000000 3
b100000000000000000000 @
1&
b100000000000000000000 %
b100000000000000000000 -
1$
#120000
0$
#125000
00
b1 B
b1 G
b1000000000000000000000 3
b1000000000000000000000 @
b1000000000000000000000 %
b1000000000000000000000 -
1$
#130000
0$
#135000
b1 C
b10 B
b1 F
b100000000000000000000 1
b100000000000000000000 E
b10 G
15
b1100000000000000000000 3
b1100000000000000000000 @
b1100000000000000000000 %
b1100000000000000000000 -
1$
#140000
0$
#145000
b11 B
b10 C
b11 G
b10 F
b1000000000000000000000 1
b1000000000000000000000 E
b10000000000000000000000 3
b10000000000000000000000 @
b10000000000000000000000 %
b10000000000000000000000 -
1$
#150000
0$
#155000
b11 C
b100 B
b11 F
b1100000000000000000000 1
b1100000000000000000000 E
b100 G
06
0&
1$
#160000
0$
#165000
10
b100 C
b100 F
b10000000000000000000000 1
b10000000000000000000000 E
1$
#170000
0$
#175000
05
1$
#180000
0$
#185000
b11111111111111111111111 7
1<
b1100000011100100000000000000000 ;
1$
#190000
0$
#195000
b11111111111111111111111 7
b11000000111001000000000000000000 ;
b11111111111111111111111 9
1:
1$
#200000
0$
#205000
b11111111111111111111111 7
b11111111111111111111111 "
b11111111111111111111111 8
1!
b100100001010101100000000000000000 ;
1$
#210000
0$
#215000
b11111111111111111111111 7
b110000001110010000000000000000000 ;
1$
#220000
0$
#225000
0<
1$
#230000
0$
#235000
0:
1$
#240000
0$
#245000
0!
1$
